<svg width="26" height="23" viewBox="0 0 26 23" fill="none" xmlns="http://www.w3.org/2000/svg">
<circle cx="13.5" cy="12.5" r="10.5" fill="url(#paint0_linear_0_1528)"/>
<path d="M18.5 8.75L11.625 15.625L8.5 12.5" stroke="white" stroke-width="2" stroke-linecap="round" stroke-linejoin="round"/>
<defs>
<linearGradient id="paint0_linear_0_1528" x1="2.6194" y1="2.3954" x2="22.9965" y2="23.3873" gradientUnits="userSpaceOnUse">
<stop stop-color="#0993A0"/>
<stop offset="0.809395" stop-color="#59C4D1"/>
</linearGradient>
</defs>
</svg>
