<svg width="32" height="32" viewBox="0 0 32 32" fill="none" xmlns="http://www.w3.org/2000/svg">
<rect y="6.19043" width="32" height="4" rx="2" fill="url(#paint0_linear_151_399)"/>
<rect y="14" width="32" height="4" rx="2" fill="url(#paint1_linear_151_399)"/>
<rect y="21.8096" width="32" height="4" rx="2" fill="url(#paint2_linear_151_399)"/>
<defs>
<linearGradient id="paint0_linear_151_399" x1="0.229763" y1="6.19043" x2="5.13918" y2="18.6936" gradientUnits="userSpaceOnUse">
<stop stop-color="#008E9B"/>
<stop offset="1" stop-color="#BDF9FB"/>
</linearGradient>
<linearGradient id="paint1_linear_151_399" x1="0.229763" y1="14" x2="5.13918" y2="26.5032" gradientUnits="userSpaceOnUse">
<stop stop-color="#008E9B"/>
<stop offset="1" stop-color="#BDF9FB"/>
</linearGradient>
<linearGradient id="paint2_linear_151_399" x1="0.229763" y1="21.8096" x2="5.13918" y2="34.3127" gradientUnits="userSpaceOnUse">
<stop stop-color="#008E9B"/>
<stop offset="1" stop-color="#BDF9FB"/>
</linearGradient>
</defs>
</svg>
